{
    "/js/adopters_test.js": "/js/adopters_test.js",
    "/js/eclipsefdn.adopters.js": "/js/eclipsefdn.adopters.js",
    "/js/scripts.min.js": "/js/scripts.min.js",
    "/css/styles.css": "/css/styles.css"
}
